{
  "type": "service_account",
  "project_id": "mutantrecruiting-176619",
  "private_key_id": "a67617f1ef684f83c64ab79c4aa045e2baaf5e47",
  "private_key": "-----BEGIN PRIVATE KEY-----\nMIIEvgIBADANBgkqhkiG9w0BAQEFAASCBKgwggSkAgEAAoIBAQCUK8AA3skQX/Sd\nzkdh3VvGNZbTbDChm04/7BQA/IJ62UjQvvjuZUalR4uA/XE8GNpMbJG/Qgr9UJQS\ndbsRcpKeoVi2BAtPkdEhFl9XYa0tKUIvuwfEpGOJ2mgHRht0/QAsOtZtv2kQT0AR\nvOqNjr1QNlW6FwAJ0Bgf16laClqmTYwqoIAM7KjFI/Rygie9TS1j59H9NrRm2jdd\nUjfvtAqNABumNZzH2TmYG5+h7f240MQurxGcA/okbvYqM/Gz+A7xMy7EtDBy5Qoo\nAnbWdzDyZgesZjDGWC9hbknyLtHkuMuPGKUoP/Vw12EJ2/BfL9192WwBSS7nmZas\nNQAmp8bFAgMBAAECggEAAXbi8Xqv6XXN5EA8O8zORECoemFOf3OIEHNhtzsQy6Mr\n1estRF3n3/rgLl+cAyzl/bY6sofISAXIIyVtA5iPJUPsrWIh/enmvKb6hj9rdU+p\npl6LINNCh3FmlTvSJaYiegRJtRpBMP/JzOMUPTp96+y9jLtIUavv+j5NaMBnuzxz\nZ6iHuWh1e29VnRcgG4Q3Jj289Of0fmyP7H9ZCQb9CU+/X0aZXwuKEjMXS5LtaG/N\nURgMEz/dZ2nu+ouc8eoa3ecQeUHZL2z27UbedF3CX68aV9fjlfpiB4rIYhVj8fdb\nd7HebePv7AlJu4Nwq5D9Hs7BIVtvB1KAVp1YTEPjgQKBgQDF+ioCPYNh4alwKRwf\nBj6BJv4iN2nk3dvXB1P14loYXpCBraaOWGQY2U2pbH+kH1WQxr3VRYg3Egr3W/EY\n/D9bDEBKUFKCIhTNzPogPh7hEUa6dcs1FtR+vhL5qLMTHmJwETCgC43Z/Zyq+Lw1\nKzkORfrukyxz751hK6/KOLYOcQKBgQC/mLfHr/Ig3/5zLh4UUYX/K4KtfEO7SOMG\nJF5Qz1itvlSuWDefdU74TwBpsY9jOT40vut3VisZ+FdOOm9QfdPykIIoa8jx59jn\nkRdZuHGnRvYSy8zIW4LIm5UpGT28/xNHM4aEXD2HwVi6RGFEkrrNCkwNI5W+9gaB\nn7MmKUTPlQKBgQC55+ksw2CtOH+ogCIVDAMDun7n2ItKy/7VU99GxO//dEVUUKFX\nh68vGldwIh9WGcp6sfWu4KVBuWKs1xx2buB7eeyhG/3uj1xjyPiT8GGEzXlSPKy+\nRJr0DT66S+0kpeKgA7RahZ8Ftb45Wms5rkXcnmA9SdxzXe22QpTHWyuyMQKBgHaY\nGznZaLB8tc2pwCinhZ+62Pp1rp8gsJW+sTqn/aYd5+C67kMfo7ADhqflpnGunxib\nDLkjdy5uD+x2MyzJlgXQ+R/4B7vk3NgJcUCx8HewbuSXjbx/GGcAFsYHv7Va1h3+\ngMcxKUz8muVBKkv93u7H7uc7HZfERaa6qXN3nAY5AoGBAMC3H/N3i9U8mbTjmHOd\n1P4sTT2rMF7aayH8wx2jrvgezwrTCppd1+Pk5i+O/yrOGS6BtX3IHXBZ+JdPnUig\nPXEKOHWSohLH5CESP+MJF+mgwl0KffntL4IKntbkfPbuV00FB5qB8bqoCRyKXrtp\n4p0vx5Cxoprj1oRG+dF0QT5M\n-----END PRIVATE KEY-----\n",
  "client_email": "heatchliff@mutantrecruiting-176619.iam.gserviceaccount.com",
  "client_id": "104541172889625694756",
  "auth_uri": "https://accounts.google.com/o/oauth2/auth",
  "token_uri": "https://accounts.google.com/o/oauth2/token",
  "auth_provider_x509_cert_url": "https://www.googleapis.com/oauth2/v1/certs",
  "client_x509_cert_url": "https://www.googleapis.com/robot/v1/metadata/x509/heatchliff%40mutantrecruiting-176619.iam.gserviceaccount.com"
}
